# Blender v2.78 (sub 0) OBJ File: ''
# www.blender.org
mtllib Moon.mtl
o Sphere.001_Sphere.002
v 1.140631 0.718165 -0.272850
v 1.058605 0.305118 -0.420129
v 1.082123 0.963315 0.109434
v 0.545224 1.429389 0.336008
v 0.877089 1.203950 0.282713
v 1.142402 0.345252 -0.025118
v 0.859346 -0.097997 -0.325837
v 1.143532 0.685142 0.182546
v 0.987252 -0.001613 -0.130381
v 0.785679 1.094079 0.551008
v 0.964187 0.763076 0.534907
v 0.988636 0.056181 0.203623
v 1.012903 0.325248 0.444811
v 0.774529 0.548614 0.763970
v 0.767118 -0.068379 0.441125
v 0.709297 -0.267082 0.062408
v 0.145520 1.431489 0.479943
v 0.530555 0.976547 0.806833
v 0.633679 0.207299 0.763354
v 0.402627 1.303856 0.617138
v 0.407385 0.543591 0.931982
v 0.457656 -0.147829 0.591479
v 0.481649 -0.303746 0.322477
v 0.357681 0.147618 0.850302
v 0.124742 0.917552 0.903401
v 0.033585 0.500879 0.951902
v 0.053491 0.000112 0.786389
v 0.328208 -0.414924 0.061274
v 0.036027 1.159963 0.763159
v -0.171642 0.723205 0.891512
v -0.182545 -0.044576 0.673554
v 0.019801 -0.317164 0.415513
v -0.093148 1.306724 0.598669
v -0.440088 0.720955 0.748706
v -0.407727 0.351197 0.764401
v -0.376879 -0.165971 0.369776
v -0.552806 0.171931 0.548289
v -0.306954 -0.321587 -0.030763
v -0.005805 -0.419246 0.011556
v -0.348599 1.108306 0.651167
v -0.594605 0.642908 0.651080
v -0.538527 0.999316 0.619089
v -0.579305 -0.079494 0.151763
v -0.757057 0.271423 0.254155
v -0.646434 1.124000 0.221038
v -0.832050 0.760264 0.039788
v -0.757787 0.163369 -0.061734
v -0.466777 -0.199456 -0.177145
v 0.188810 1.528125 0.276969
v -0.826088 0.448163 -0.215056
v -0.661117 0.043402 -0.297496
v -0.203482 1.436724 0.330235
v -0.519719 1.320726 0.082374
v -0.726808 1.040692 -0.149741
v -0.377984 -0.161830 -0.473170
v -0.715775 0.848886 -0.453015
v -0.702540 0.574506 -0.566019
v -0.582899 0.221221 -0.625654
v -0.360444 0.115350 -0.773232
v -0.369155 1.348920 -0.413107
v -0.537088 1.156022 -0.493051
v -0.469635 0.901279 -0.761919
v -0.425711 0.522756 -0.865972
v -0.237131 1.503181 -0.042126
v -0.274424 1.078748 -0.708522
v -0.170871 0.359540 -0.971148
v -0.082199 0.012891 -0.849222
v 0.194380 1.160273 -0.780603
v -0.052442 1.011546 -0.942614
v 0.006068 0.692880 -1.042874
v 0.164106 0.250036 -0.999920
v 0.274738 0.844259 -1.012638
v 0.445149 0.436034 -1.004162
v 0.380236 1.339898 -0.666325
v 0.488257 1.043502 -0.876966
v 0.364172 0.073579 -0.898385
v 0.037422 1.559544 0.112839
v 0.202180 1.579758 -0.154326
v 0.313216 1.506413 -0.408267
v 0.638900 0.631792 -0.932631
v 0.684513 1.306827 -0.502803
v 0.805803 0.990038 -0.703451
v 0.688653 0.208052 -0.821277
v 0.808776 1.360878 -0.105238
v 0.941159 0.673349 -0.672435
v 0.890316 0.387050 -0.717724
v 0.477140 1.529409 0.026288
v 0.902856 1.229824 -0.244321
v 1.046344 0.900853 -0.407154
v 0.790813 0.003456 -0.585603
v -0.378425 1.411954 0.020124
v -0.528403 1.238374 -0.205338
v -0.444437 1.334823 -0.165366
v -0.303143 1.426051 -0.227617
v -0.503361 1.028650 -0.627485
v -0.208537 1.316489 -0.540245
v -0.220637 1.406788 -0.367673
v -0.261038 0.956412 -0.852267
v 0.060335 1.541162 -0.253722
v -0.017476 1.541470 -0.098226
v -0.292504 1.220040 -0.580217
v 0.217908 1.027524 -0.909790
v -0.050181 1.147802 -0.804999
v 0.434247 1.191700 -0.771645
v -0.453121 1.252471 -0.453079
v 0.132648 1.395235 -0.537825
v -0.064715 1.393312 -0.510250
v -0.159320 1.502874 -0.197622
v -0.052615 1.303013 -0.682822
v 0.166158 1.311978 -0.666854
v 0.257698 1.543086 -0.281296
v 0.346726 1.423156 -0.537296
v -0.076815 1.483612 -0.337678
v 0.120548 1.485535 -0.365253
v -0.323112 1.495787 -0.273435
v -0.389125 1.418656 -0.458925
v -0.523331 1.098386 -0.673303
v -0.489605 0.971014 -0.807737
v -0.074846 1.236493 -0.866256
v -0.072411 1.081282 -0.988433
v -0.317168 1.308731 -0.641474
v -0.557057 1.225757 -0.538869
v -0.281008 1.026148 -0.898085
v 0.040365 1.610898 -0.299540
v -0.101480 1.572303 -0.398935
v 0.095884 1.574226 -0.426510
v 0.197938 1.097260 -0.955608
v 0.141493 1.400669 -0.728111
v 0.414277 1.261436 -0.817464
v 0.468287 1.113238 -0.922784
v -0.473091 1.322207 -0.498897
v -0.245302 1.495479 -0.428930
v -0.233202 1.405180 -0.601502
v 0.107983 1.483927 -0.599082
v 0.326757 1.492892 -0.583114
v 0.360267 1.409634 -0.712143
v 0.293247 1.576149 -0.454085
v -0.179290 1.572610 -0.243440
v 0.237728 1.612822 -0.327115
v 0.169716 1.248965 -0.841860
v -0.299088 1.167439 -0.769779
v -0.394344 0.914631 0.699936
v -0.423907 0.536076 0.756553
v -0.604938 0.480175 0.634300
v -0.584272 0.805640 0.667859
v -0.677478 0.390542 0.526244
v -0.497516 1.116153 0.436102
v -0.779603 0.440288 0.379177
v -0.654932 0.221677 0.401222
v -0.794553 0.515843 0.146971
v -0.739242 0.942132 0.130413
v -0.480267 0.261564 0.656345
v -0.817100 0.684708 0.271994
v -0.780253 0.825295 0.313400
v -0.693160 0.850698 0.539947
v -0.687445 1.007163 0.404025
v -0.766853 0.569525 0.457134
v -0.730007 0.710111 0.498540
v -0.531258 0.966544 0.805015
v -0.577003 0.772868 0.853784
v -0.560822 0.587989 0.861632
v -0.544641 0.403110 0.869480
v -0.779096 0.402827 0.584257
v -0.689721 0.223844 0.653367
v -0.685890 0.817926 0.725872
v -0.706556 0.492460 0.692313
v -0.634431 1.168067 0.541180
v -0.783348 1.175913 0.326116
v 0.784321 -0.182540 -0.131714
v -0.791846 0.273591 0.506300
v -0.931468 0.567757 0.252050
v -0.893971 0.323337 0.359233
v -0.876156 0.994045 0.235491
v -0.968965 0.812177 0.144866
v -0.617181 0.313477 0.761423
v -0.640146 1.011602 0.677102
v -0.485513 1.160220 0.756245
v -0.789063 1.019449 0.462038
v -0.881871 0.837581 0.371413
v -0.918718 0.696994 0.330006
v -0.881221 0.452574 0.437190
v -0.696223 0.655193 0.709092
v 0.518752 -0.341003 0.061841
v 0.161202 -0.417085 0.036415
v -0.156379 -0.370416 -0.009604
v -0.342469 -0.241709 -0.251966
v -0.369214 -0.023240 -0.623201
v -0.221321 0.064121 -0.811227
v 0.140987 0.043235 -0.873804
v 0.526413 0.140816 -0.859831
v 0.739733 0.105754 -0.703440
v 0.825079 -0.047271 -0.455720
v 0.667706 -0.273017 -0.486879
v 0.792970 -0.281959 -0.181792
v 0.867994 -0.197417 -0.375915
v 0.665857 -0.387438 -0.132241
v 0.527401 -0.440423 0.011763
v 0.336857 -0.514343 0.011196
v 0.475313 -0.461359 -0.132808
v 0.246804 -0.513475 -0.137116
v 0.156751 -0.512606 -0.285427
v 0.169850 -0.516504 -0.013663
v -0.298306 -0.421007 -0.080842
v -0.147731 -0.469836 -0.059682
v 0.002844 -0.518665 -0.038522
v 0.079797 -0.515636 -0.161975
v -0.066144 -0.469519 -0.237961
v -0.135133 -0.420373 -0.437400
v -0.216719 -0.420690 -0.259121
v 0.010809 -0.466490 -0.361414
v -0.333821 -0.341129 -0.302045
v -0.360566 -0.122660 -0.673279
v -0.351795 0.015931 -0.823310
v -0.212673 -0.035299 -0.861305
v -0.073550 -0.086529 -0.899300
v -0.069562 -0.178563 -0.816213
v -0.065575 -0.270598 -0.733125
v 0.176067 -0.145202 -0.851139
v 0.425684 -0.203876 -0.802978
v 0.180055 -0.237237 -0.768052
v 0.149635 -0.056185 -0.923882
v 0.399252 -0.114858 -0.875721
v 0.535061 0.041396 -0.909909
v 0.372821 -0.025841 -0.948463
v 0.561493 -0.047621 -0.837167
v 0.748382 0.006335 -0.753518
v 0.697302 0.108633 -0.871355
v 0.612572 -0.149920 -0.719330
v 0.833728 -0.146690 -0.505798
v 0.799461 -0.095964 -0.635681
v 0.633440 -0.222290 -0.616762
v 0.740881 -0.302896 -0.326363
v 0.350059 -0.490824 -0.189907
v 0.717945 -0.366502 0.012330
v -0.252234 -0.340812 -0.480324
v -0.217455 -0.265924 -0.628186
v -0.369336 -0.261250 -0.523248
v -0.100354 -0.345486 -0.585263
v -0.208685 -0.127334 -0.778217
v 0.646142 -0.151959 -0.432254
v 0.445854 -0.227559 -0.543218
v 0.519029 -0.257438 -0.382702
v 0.644293 -0.266381 -0.077615
v 0.592204 -0.287318 -0.222186
v 0.466951 -0.316783 -0.279286
v 0.341698 -0.346248 -0.336385
v 0.453748 -0.340302 -0.078183
v 0.238442 -0.368898 -0.283593
v 0.225240 -0.392417 -0.082490
v 0.135186 -0.391549 -0.230802
v -0.010755 -0.345432 -0.306788
v 0.107413 -0.338946 -0.372341
v 0.241879 -0.184581 -0.631117
v 0.079639 -0.286344 -0.513880
v 0.158490 -0.116179 -0.713426
v -0.087139 -0.149541 -0.678500
v 0.262746 -0.256952 -0.528549
v 0.591008 -0.028862 -0.664704
v 0.404119 -0.082818 -0.748353
v 0.210669 -0.316296 -0.425133
v 0.393776 -0.286904 -0.439801
v 0.328495 -0.369767 -0.135282
v -0.121918 -0.224428 -0.530637
v -0.156697 -0.299316 -0.382775
v -0.038529 -0.292830 -0.448327
v -0.003750 -0.217942 -0.596190
v 0.424986 -0.155189 -0.645785
v 0.611875 -0.101233 -0.562137
v 0.719317 -0.181839 -0.271738
vn 0.7839 -0.4797 -0.3942
vn 0.8200 0.5722 0.0155
vn 0.2184 0.9417 0.2561
vn 0.5721 0.7904 0.2190
vn 1.0000 0.0005 -0.0063
vn 0.6642 -0.7445 -0.0675
vn 0.9534 -0.1595 0.2559
vn 0.7265 -0.6777 0.1142
vn 0.4337 0.5727 0.6956
vn 0.8986 0.4239 -0.1135
vn 0.7873 -0.0390 0.6153
vn 0.1753 0.8628 0.4742
vn 0.7538 -0.4750 0.4540
vn 0.6671 -0.2765 0.6918
vn 0.5118 -0.7904 0.3366
vn 0.3552 -0.9170 0.1816
vn 0.4102 0.1436 0.9006
vn 0.3374 -0.2306 0.9127
vn 0.0407 0.1067 0.9935
vn -0.0221 0.7110 0.7028
vn 0.1416 -0.6248 0.7679
vn 0.0339 -0.7610 0.6479
vn 0.1267 -0.8533 0.5059
vn -0.0241 -0.9689 0.2464
vn -0.0463 -0.3151 0.9479
vn -0.3650 -0.0851 0.9271
vn -0.2802 -0.3113 0.9081
vn -0.3053 0.3907 0.8684
vn -0.2983 0.5838 0.7551
vn -0.3542 -0.7680 0.5335
vn -0.4476 0.3163 0.8364
vn -0.1568 0.9043 0.3971
vn -0.5135 -0.4587 0.7252
vn -0.5472 -0.5956 0.5881
vn -0.3699 -0.8860 0.2796
vn -0.6403 -0.7657 0.0602
vn -0.7972 -0.6034 -0.0199
vn -0.8589 -0.4839 0.1675
vn -0.5892 0.6827 0.4322
vn -0.9888 -0.1053 0.1058
vn -0.4396 -0.8650 -0.2418
vn -0.6728 -0.6813 -0.2884
vn -0.9059 0.4104 0.1042
vn -0.9199 -0.3326 -0.2080
vn -0.9547 0.2346 -0.1831
vn -0.7191 0.6736 -0.1711
vn -0.1705 0.9268 0.3347
vn -0.6270 -0.5536 -0.5480
vn -0.7396 -0.1393 -0.6585
vn -0.6178 -0.2673 -0.7395
vn -0.5775 0.8060 -0.1296
vn -0.7562 0.3696 -0.5399
vn -0.7822 0.2047 -0.5885
vn -0.5091 -0.2678 -0.8180
vn -0.1808 0.9828 -0.0371
vn -0.1306 -0.1418 -0.9812
vn -0.1989 -0.3701 -0.9075
vn -0.0236 -0.5186 -0.8547
vn -0.0560 0.2903 -0.9553
vn 0.1001 0.0211 -0.9948
vn 0.3438 0.2482 -0.9056
vn 0.2636 0.0901 -0.9604
vn 0.4865 -0.1682 -0.8574
vn 0.3465 -0.3333 -0.8768
vn 0.3316 0.8296 -0.4492
vn 0.6248 0.1929 -0.7566
vn 0.6707 -0.3911 -0.6302
vn 0.6048 0.7418 -0.2899
vn 0.8826 0.1216 -0.4542
vn 0.4981 0.8512 0.1654
vn 0.5073 0.6926 0.5128
vn 0.9184 -0.3628 -0.1580
vn 0.8241 -0.4783 -0.3034
vn 0.7926 0.6009 0.1035
vn 0.9759 0.2180 0.0096
vn 0.9731 -0.1241 -0.1938
vn 0.9026 -0.4249 0.0698
vn 0.8106 0.4031 0.4248
vn 0.6050 0.2788 0.7458
vn 0.8766 0.2937 0.3812
vn 0.1676 0.8758 0.4527
vn 0.9229 -0.2998 0.2416
vn 0.8917 0.0061 0.4525
vn 0.6708 -0.6940 0.2617
vn 0.4223 -0.5559 0.7160
vn 0.6572 -0.4163 0.6283
vn 0.4299 -0.7640 0.4812
vn 0.4119 -0.1716 0.8949
vn 0.1233 0.5320 0.8377
vn 0.1953 0.2207 0.9556
vn 0.0960 -0.9349 0.3416
vn 0.0760 -0.2106 0.9746
vn -0.0209 0.7378 0.6747
vn -0.1333 0.1433 0.9807
vn -0.3365 -0.3884 0.8578
vn -0.1702 -0.7411 0.6495
vn -0.2988 0.4027 0.8652
vn -0.4696 -0.0036 0.8829
vn -0.1984 0.8477 0.4920
vn -0.3303 -0.9099 0.2509
vn -0.5669 -0.7964 0.2105
vn -0.7429 -0.5418 0.3932
vn -0.8869 -0.2616 -0.3807
vn -0.4485 0.7181 0.5321
vn -0.5882 0.6835 0.4322
vn -0.7724 -0.6343 -0.0329
vn -0.6600 0.3263 0.6767
vn -0.9779 -0.1970 0.0697
vn -0.9625 0.1208 -0.2428
vn -0.4695 0.8609 0.1961
vn -0.6903 -0.5544 -0.4649
vn -0.8228 0.5660 0.0512
vn -0.8381 0.4468 -0.3131
vn -0.3011 0.9337 0.1938
vn -0.7218 0.1043 -0.6842
vn -0.7054 0.6868 -0.1753
vn -0.3738 -0.3914 -0.8409
vn -0.3800 0.0027 -0.9250
vn -0.4769 0.6571 -0.5837
vn -0.4749 0.5485 -0.6882
vn -0.4345 0.1939 -0.8795
vn -0.3442 0.8218 -0.4541
vn -0.1955 0.9756 -0.0998
vn 0.4421 0.6078 -0.6596
vn 0.0745 0.5055 -0.8596
vn 0.0396 -0.0825 -0.9958
vn 0.1941 -0.3145 -0.9292
vn 0.4960 0.2920 -0.8177
vn 0.3467 0.9206 -0.1795
vn 0.0916 0.9884 0.1212
vn 0.4092 0.8783 -0.2473
vn 0.7208 0.5401 -0.4344
vn 0.6521 0.0041 -0.7581
vn 0.5538 -0.1502 -0.8190
vn 0.7847 0.2813 -0.5524
vn 0.8830 -0.0389 -0.4678
vn 0.7566 -0.3796 -0.5324
vn 0.0406 0.6115 -0.7902
vn -0.0738 0.8815 -0.4664
vn 0.0050 0.8408 -0.5413
vn -0.6530 0.2763 0.7051
vn 0.1332 -0.5173 -0.8454
vn 0.9510 0.3052 0.0500
vn 0.9499 0.3077 0.0542
vn 0.1085 0.5674 0.8163
vn 0.8700 0.4195 0.2592
vn -0.4250 0.8794 -0.2144
vn -0.9634 -0.2679 0.0121
vn -0.1916 -0.5767 -0.7942
vn -0.9362 -0.0386 0.3493
vn 0.1095 0.5675 0.8160
vn -0.0509 0.9533 -0.2976
vn -0.3957 0.4224 0.8154
vn -0.9718 -0.2274 0.0621
vn -0.4577 0.5750 -0.6782
vn 0.0539 0.6119 -0.7891
vn 0.9739 0.2077 -0.0915
vn 0.9710 0.2329 -0.0538
vn 0.6632 -0.2917 -0.6893
vn -0.9710 -0.2329 0.0538
vn 0.0422 0.5969 -0.8012
vn 0.0557 0.5989 -0.7989
vn -0.9521 -0.3013 -0.0529
vn 0.1586 0.5906 0.7912
vn -0.1066 -0.5850 -0.8040
vn -0.4745 0.5670 -0.6733
vn -0.1107 0.5438 0.8319
vn -0.4588 0.5547 -0.6942
vn 0.4030 -0.4416 -0.8016
vn -0.7454 -0.0119 0.6665
vn -0.7556 -0.0081 0.6550
vn -0.7649 -0.1391 0.6289
vn -0.7166 0.4722 0.5134
vn -0.9291 0.1430 0.3411
vn -0.9709 -0.0459 0.2349
vn -0.9002 0.3039 0.3120
vn -0.8345 -0.2219 0.5044
vn 0.1369 -0.8056 0.5764
vn 0.6272 0.0877 0.7739
vn 0.2544 0.9567 -0.1412
vn 0.6201 0.0507 0.7829
vn -0.6493 -0.3868 -0.6549
vn -0.3622 0.5572 -0.7472
vn -0.3842 -0.9221 -0.0451
vn -0.7493 -0.0296 0.6616
vn -0.1010 -0.9943 0.0337
vn -0.4812 0.1201 -0.8683
vn 0.4888 0.4122 0.7689
vn -0.2083 0.8169 -0.5378
vn -0.5023 -0.0977 -0.8592
vn 0.3601 -0.5568 0.7486
vn -0.7595 -0.0295 0.6498
vn 0.2160 0.9606 0.1749
vn 0.4302 -0.3570 0.8292
vn -0.1567 0.4334 -0.8875
vn -0.9843 -0.1398 0.1076
vn 0.9412 -0.0831 0.3275
vn -0.2662 -0.4520 0.8514
vn 0.9664 0.1776 -0.1856
vn 0.9504 0.2019 -0.2367
vn -0.0808 0.4428 -0.8930
vn 0.1650 -0.4322 0.8865
vn 0.0249 0.4514 -0.8920
vn -0.1253 -0.4550 0.8816
vn -0.9948 -0.0391 -0.0942
vn 0.5016 -0.7801 -0.3739
vn 0.3617 -0.9323 0.0047
vn 0.0007 -0.6326 -0.7744
vn -0.2886 -0.9480 -0.1338
vn -0.0144 -0.6704 -0.7419
vn 0.4679 -0.5569 -0.6863
vn 0.5165 -0.7426 -0.4263
vn 0.6101 -0.7851 -0.1061
vn 0.0152 -0.9998 -0.0151
vn 0.3930 -0.5091 -0.7658
vn -0.2202 -0.9621 -0.1609
vn 0.4536 -0.6821 -0.5736
vn -0.4896 -0.8423 -0.2255
vn -0.4485 -0.6433 -0.6205
vn -0.3613 -0.7948 -0.4875
vn -0.4109 -0.6207 -0.6678
vn 0.2686 -0.9586 -0.0945
vn 0.9651 0.0566 0.2557
vn -0.1467 0.3850 -0.9112
vn -0.9780 -0.2003 0.0577
vn -0.4852 0.2864 -0.8262
vn 0.1804 -0.3777 0.9082
vn 0.5201 0.4266 -0.7400
vn -0.9323 -0.0029 -0.3616
vn -0.8848 -0.3133 0.3450
vn -0.2601 -0.4353 0.8619
vn 0.1620 -0.9813 -0.1041
vn -0.9573 -0.2419 0.1581
vn 0.2864 0.4360 -0.8532
vn 0.7984 0.3600 -0.4827
vn -0.1279 -0.9376 -0.3234
vn 0.0250 -0.9355 -0.3526
vn 0.0825 -0.8063 -0.5857
vn 0.1056 -0.8845 -0.4544
vn 0.3543 -0.8769 -0.3248
vn -0.2205 -0.8483 -0.4815
vn 0.0118 -0.7631 -0.6461
usemtl Material.034
s off
f 2//1 7//1 192//1 90//1
f 88//2 84//2 3//2
f 87//3 49//3 4//3
f 4//4 5//4 84//4
f 1//5 8//5 6//5
f 9//6 16//6 169//6 7//6
f 8//7 13//7 6//7
f 12//8 16//8 9//8
f 20//9 18//9 10//9
f 3//10 1//10 89//10 88//10
f 11//11 14//11 13//11
f 17//12 20//12 4//12
f 13//13 15//13 12//13
f 14//14 19//14 13//14
f 16//15 15//15 23//15
f 16//16 23//16 28//16 183//16
f 18//17 21//17 14//17
f 21//18 24//18 19//18
f 25//19 26//19 21//19
f 17//20 33//20 20//20
f 24//21 27//21 22//21
f 22//22 27//22 32//22
f 22//23 32//23 23//23
f 28//24 32//24 39//24 184//24
f 26//25 27//25 24//25
f 26//26 30//26 35//26
f 26//27 35//27 27//27
f 29//28 40//28 25//28
f 33//29 40//29 29//29
f 32//30 31//30 36//30
f 30//31 40//31 142//31 34//31
f 17//32 49//32 52//32
f 31//33 35//33 152//33 37//33
f 37//34 36//34 31//34
f 36//35 38//35 32//35
f 43//36 48//36 38//36
f 43//37 47//37 51//37
f 44//38 47//38 43//38
f 52//39 53//39 40//39
f 46//40 50//40 44//40 150//40
f 48//41 55//41 186//41 38//41
f 51//42 55//42 48//42
f 45//43 54//43 46//43 151//43
f 50//44 51//44 47//44
f 46//45 54//45 56//45
f 54//46 53//46 92//46 61//46
f 52//47 49//47 77//47
f 58//48 59//48 187//48 55//48
f 57//49 63//49 58//49
f 58//50 63//50 59//50
f 53//51 91//51 93//51
f 56//52 61//52 95//52 62//52
f 56//53 62//53 57//53
f 59//54 63//54 66//54
f 64//55 77//55 78//55 100//55
f 66//56 70//56 71//56
f 66//57 71//57 67//57
f 71//58 76//58 189//58 67//58
f 69//59 72//59 70//59
f 72//60 73//60 70//60
f 72//61 75//61 80//61
f 72//62 80//62 73//62
f 73//63 80//63 83//63
f 73//64 83//64 190//64 76//64
f 74//65 112//65 79//65 81//65
f 82//66 85//66 80//66
f 86//67 90//67 191//67 83//67
f 81//68 84//68 88//68
f 89//69 1//69 85//69
f 84//70 87//70 4//70
f 10//71 5//71 4//71 20//71
f 2//72 6//72 9//72
f 7//73 2//73 9//73
f 84//74 5//74 3//74
f 1//75 3//75 8//75
f 2//76 1//76 6//76
f 9//77 6//77 12//77
f 11//78 3//78 5//78 10//78
f 14//79 11//79 10//79 18//79
f 3//80 11//80 8//80
f 49//81 17//81 4//81
f 6//82 13//82 12//82
f 13//83 8//83 11//83
f 16//84 12//84 15//84
f 22//85 15//85 19//85 24//85
f 13//86 19//86 15//86
f 15//87 22//87 23//87
f 14//88 21//88 19//88
f 25//89 18//89 20//89 29//89
f 18//90 25//90 21//90
f 23//91 32//91 28//91
f 21//92 26//92 24//92
f 29//93 20//93 33//93
f 25//94 30//94 26//94
f 27//95 35//95 31//95
f 27//96 31//96 32//96
f 25//97 40//97 30//97
f 35//98 30//98 34//98 143//98
f 17//99 52//99 33//99
f 39//100 32//100 38//100 185//100
f 36//101 43//101 38//101
f 43//102 36//102 37//102 149//102 44//102
f 58//103 51//103 50//103 57//103
f 40//104 33//104 52//104
f 45//105 147//105 40//105 53//105
f 43//106 51//106 48//106
f 42//107 155//107 145//107
f 47//108 44//108 50//108
f 56//109 57//109 50//109 46//109
f 52//110 64//110 91//110 53//110
f 51//111 58//111 55//111
f 54//112 45//112 53//112
f 56//113 54//113 61//113
f 52//114 77//114 64//114
f 57//115 62//115 63//115
f 61//116 92//116 105//116
f 59//117 66//117 67//117 188//117
f 63//118 70//118 66//118
f 96//119 109//119 101//119
f 109//120 103//120 65//120 101//120
f 69//121 70//121 63//121 62//121 98//121
f 97//122 113//122 107//122
f 64//123 100//123 108//123
f 96//122 97//122 107//122
f 81//124 82//124 75//124 104//124 74//124
f 69//125 102//125 75//125 72//125
f 71//126 70//126 73//126
f 71//127 73//127 76//127
f 75//128 82//128 80//128
f 87//129 84//129 79//129 111//129 78//129
f 49//130 87//130 78//130 77//130
f 81//131 79//131 84//131
f 88//132 89//132 82//132 81//132
f 80//133 85//133 86//133
f 83//134 80//134 86//134
f 82//135 89//135 85//135
f 2//136 86//136 85//136 1//136
f 86//137 2//137 90//137
f 96//122 107//122 109//122
f 110//138 68//138 103//138 109//138
f 107//139 114//139 106//139
f 107//139 106//139 109//139
f 108//123 100//123 99//123
f 100//123 78//123 99//123
f 113//139 114//139 107//139
f 109//140 106//140 110//140
f 61//141 105//141 131//141 122//141
f 102//142 69//142 120//142 127//142
f 79//143 112//143 135//143 137//143
f 74//144 104//144 129//144 136//144
f 99//145 111//145 139//145 124//145
f 111//146 79//146 137//146 139//146
f 94//147 64//147 108//147
f 105//116 93//116 60//116
f 105//116 92//116 93//116
f 92//116 53//116 93//116
f 62//148 95//148 117//148 118//148
f 98//149 62//149 118//149 123//149
f 95//148 61//148 122//148 117//148
f 75//142 102//142 127//142 130//142
f 60//150 94//150 115//150 116//150
f 108//151 99//151 124//151 138//151
f 104//144 75//144 130//144 129//144
f 112//143 74//143 136//143 135//143
f 99//152 78//152 111//152
f 105//141 60//141 116//141 131//141
f 94//153 108//153 138//153 115//153
f 69//149 98//149 123//149 120//149
f 93//51 94//51 60//51
f 93//51 91//51 94//51
f 91//51 64//51 94//51
f 116//119 133//119 131//119
f 125//152 124//152 126//152
f 128//154 140//154 68//154 110//154
f 141//155 123//155 118//155 117//155
f 116//147 115//147 132//147
f 116//122 132//122 133//122
f 140//156 127//156 120//156 119//156
f 141//157 121//157 101//157 65//157
f 133//158 132//158 97//158 96//158
f 121//159 133//159 96//159 101//159
f 126//139 137//139 134//139
f 138//123 124//123 125//123
f 126//160 134//160 106//160 114//160
f 136//161 129//161 140//161 128//161
f 129//162 130//162 127//162 140//162
f 134//163 128//163 110//163 106//163
f 119//164 141//164 65//164 103//164
f 125//165 126//165 114//165 113//165
f 132//147 138//147 125//147
f 132//147 115//147 138//147
f 121//166 141//166 117//166 122//166
f 140//167 119//167 103//167 68//167
f 119//168 120//168 123//168 141//168
f 128//140 135//140 136//140
f 128//140 134//140 135//140
f 134//140 137//140 135//140
f 126//152 139//152 137//152
f 126//152 124//152 139//152
f 131//119 121//119 122//119
f 131//119 133//119 121//119
f 132//169 125//169 113//169 97//169
f 158//170 157//170 144//170 41//170
f 155//171 158//171 41//171 145//171
f 144//172 157//172 146//172
f 42//173 156//173 155//173
f 158//174 155//174 154//174
f 153//174 158//174 154//174
f 157//175 153//175 148//175
f 157//174 158//174 153//174
f 155//176 156//176 154//176
f 157//177 148//177 146//177
f 152//178 35//178 162//178 175//178
f 35//179 143//179 161//179 162//179
f 40//180 147//180 167//180 177//180
f 34//181 142//181 159//181 160//181
f 147//180 45//180 168//180 167//180
f 150//182 44//182 172//182 171//182
f 37//178 152//178 175//178 164//178
f 151//183 46//183 174//183 173//183
f 45//183 151//183 173//183 168//183
f 143//179 34//179 160//179 161//179
f 46//182 150//182 171//182 174//182
f 149//184 37//184 164//184 170//184
f 142//181 40//181 177//181 159//181
f 44//184 149//184 170//184 172//184
f 177//107 176//107 159//107
f 182//185 166//185 162//185 161//185
f 162//172 166//172 175//172
f 177//173 167//173 176//173
f 176//186 178//186 156//186 42//186
f 166//187 182//187 41//187 144//187
f 181//175 171//175 172//175
f 181//175 180//175 171//175
f 180//175 174//175 171//175
f 180//174 179//174 174//174
f 180//188 181//188 148//188 153//188
f 163//189 166//189 144//189 146//189
f 179//176 173//176 174//176
f 179//176 178//176 173//176
f 178//176 168//176 173//176
f 165//190 176//190 42//190 145//190
f 176//173 167//173 178//173
f 167//173 168//173 178//173
f 175//172 163//172 164//172
f 175//172 166//172 163//172
f 178//191 179//191 154//191 156//191
f 165//192 182//192 161//192 160//192
f 182//187 165//187 145//187 41//187
f 181//193 163//193 146//193 148//193
f 163//177 170//177 164//177
f 163//177 181//177 170//177
f 181//177 172//177 170//177
f 159//107 165//107 160//107
f 159//107 176//107 165//107
f 179//194 180//194 153//194 154//194
f 189//195 76//195 224//195 221//195
f 38//196 186//196 211//196 203//196
f 7//197 169//197 194//197 195//197
f 67//195 189//195 221//195 215//195
f 39//198 185//198 204//198 205//198
f 90//199 192//199 229//199 230//199
f 83//200 191//200 226//200 227//200
f 191//200 90//200 230//200 226//200
f 185//198 38//198 203//198 204//198
f 188//201 67//201 215//201 214//201
f 183//202 28//202 198//202 197//202
f 190//203 83//203 227//203 223//203
f 16//202 183//202 197//202 234//202
f 59//201 188//201 214//201 213//201
f 28//204 184//204 202//204 198//204
f 169//197 16//197 234//197 194//197
f 187//205 59//205 213//205 212//205
f 184//204 39//204 205//204 202//204
f 76//203 190//203 223//203 224//203
f 55//205 187//205 212//205 237//205
f 192//199 7//199 195//199 229//199
f 186//196 55//196 237//196 211//196
f 195//206 232//206 193//206
f 234//207 197//207 196//207
f 218//208 215//208 221//208
f 222//208 218//208 221//208
f 203//209 209//209 204//209
f 217//210 216//210 220//210
f 227//211 226//211 225//211
f 230//212 229//212 231//212
f 195//213 194//213 232//213
f 222//208 221//208 224//208
f 201//214 200//214 206//214
f 222//215 224//215 223//215
f 201//216 206//216 210//216
f 225//215 222//215 223//215
f 225//215 223//215 227//215
f 228//217 230//217 231//217
f 208//218 209//218 235//218
f 237//219 212//219 236//219
f 208//220 235//220 238//220
f 213//221 214//221 239//221
f 219//208 218//208 222//208
f 219//215 222//215 225//215
f 239//221 216//221 217//221
f 239//221 214//221 216//221
f 214//221 215//221 216//221
f 238//220 236//220 217//220
f 238//220 235//220 236//220
f 235//220 237//220 236//220
f 236//219 239//219 217//219
f 236//219 212//219 239//219
f 212//219 213//219 239//219
f 235//218 211//218 237//218
f 235//218 209//218 211//218
f 209//218 203//218 211//218
f 210//216 207//216 208//216
f 210//216 206//216 207//216
f 206//216 205//216 207//216
f 206//214 202//214 205//214
f 206//214 200//214 202//214
f 200//214 198//214 202//214
f 233//222 199//222 198//222
f 232//213 194//213 196//213
f 194//213 234//213 196//213
f 231//212 229//212 193//212
f 229//212 195//212 193//212
f 225//211 228//211 219//211
f 225//211 226//211 228//211
f 226//211 230//211 228//211
f 238//223 217//223 256//223 263//223
f 196//224 199//224 247//224 243//224
f 228//225 231//225 268//225 258//225
f 220//210 218//210 219//210
f 220//210 216//210 218//210
f 216//210 215//210 218//210
f 233//226 200//226 249//226 262//226
f 220//227 219//227 259//227 255//227
f 210//228 208//228 264//228 251//228
f 217//227 220//227 255//227 256//227
f 232//229 196//229 243//229 269//229
f 193//230 232//230 269//230 240//230
f 204//209 207//209 205//209
f 204//209 209//209 207//209
f 209//209 208//209 207//209
f 219//231 228//231 258//231 259//231
f 201//228 210//228 251//228 250//228
f 233//232 198//232 200//232
f 231//233 193//233 240//233 268//233
f 196//207 197//207 199//207
f 197//207 198//207 199//207
f 199//234 233//234 262//234 247//234
f 208//223 238//223 263//223 264//223
f 200//235 201//235 250//235 249//235
f 246//232 262//232 248//232
f 250//236 251//236 252//236
f 246//237 248//237 260//237
f 259//238 267//238 253//238
f 246//239 260//239 261//239
f 241//240 242//240 261//240
f 246//222 245//222 262//222
f 264//241 263//241 265//241
f 256//242 255//242 266//242
f 259//217 258//217 267//217
f 267//217 258//217 268//217
f 267//217 268//217 241//217
f 266//242 253//242 254//242
f 266//242 255//242 253//242
f 255//242 259//242 253//242
f 265//241 266//241 254//241
f 265//241 263//241 266//241
f 263//241 256//241 266//241
f 262//222 245//222 247//222
f 245//222 244//222 247//222
f 269//213 243//213 244//213
f 261//240 245//240 246//240
f 261//240 242//240 245//240
f 242//240 244//240 245//240
f 268//212 240//212 241//212
f 261//239 257//239 241//239
f 261//239 260//239 257//239
f 260//239 254//239 257//239
f 253//238 257//238 254//238
f 253//238 267//238 257//238
f 267//238 241//238 257//238
f 260//237 252//237 254//237
f 260//237 248//237 252//237
f 248//237 250//237 252//237
f 252//236 265//236 254//236
f 252//236 251//236 265//236
f 251//236 264//236 265//236
f 248//232 249//232 250//232
f 248//232 262//232 249//232
f 243//207 247//207 244//207
f 240//206 242//206 241//206
f 240//206 269//206 242//206
f 269//206 244//206 242//206
