# Blender MTL File: 'None'
# Material Count: 4

newmtl Material.002
Ns 94.117647
Ka 1.000000 1.000000 1.000000
Kd 0.640000 0.627231 0.450659
Ks 0.500000 0.500000 0.500000
Ke 0.000000 0.000000 0.000000
Ni 1.000000
d 1.000000
illum 2

newmtl Material.003
Ns 94.117647
Ka 1.000000 1.000000 1.000000
Kd 0.571413 0.640000 0.444958
Ks 0.500000 0.500000 0.500000
Ke 0.000000 0.000000 0.000000
Ni 1.000000
d 1.000000
illum 2

newmtl Material.004
Ns 94.117647
Ka 1.000000 1.000000 1.000000
Kd 0.011536 0.097964 0.230637
Ks 0.500000 0.500000 0.500000
Ke 0.000000 0.000000 0.000000
Ni 1.000000
d 1.000000
illum 2

newmtl Material.005
Ns 94.117647
Ka 1.000000 1.000000 1.000000
Kd 0.752325 0.800000 0.800000
Ks 0.500000 0.500000 0.500000
Ke 0.000000 0.000000 0.000000
Ni 1.000000
d 1.000000
illum 2
